Vivado/Lab_04.sim/sim_1/behav/xsim/simulate.log
Vivado Simulator 2019.1
Time resolution is 1 ps
 Block Memory Generator module loading initial data...
 Block Memory Generator data initialization complete.
Block Memory Generator module testbench.testtop1.inst_ram.inst.native_mem_module.blk_mem_gen_v8_4_3_inst is using a behavioral model for simulation which will not precisely model memory collision behavior.
Block Memory Generator module testbench.testtop1.data_ram.inst.native_mem_module.blk_mem_gen_v8_4_3_inst is using a behavioral model for simulation which will not precisely model memory collision behavior.
clka:x $$$$$$$$$$$$$$$$$$$$$$$$$$$$$$$$$$$$$$$$$$$$$$$$$$$$$$$
datapath, write2reg£ºxxxxx, regwrite: x, pc: xxxxxxxx, instr: xxxxxxxx, instr[25:21]: xxxxx, instr[20:16]: xxxxx, rd1D:          x, rd1E:          x, alu_srcB:          x, alucontrol:xxx, alu_result:         x,memtorg:x, wd3:         x
datapath, rd1D:         x,forwardAD:x,rd2D:         x,forwardBD:x,alu_resultM:         x, eql1:         x,eql2:         x,branch:x,pcsrc:x
datapath, pcsrc:x, pc_next:xxxxxxxx,pc_branchM:xxxxxxxx, jump:x,pc_jump:xxxxxxxX, pc_next_jump:xxxxxxxx
datapath, pc_branch:xxxxxxxx, pc_plus4E:         x, imm_sl2:         X
rsD: x, rtD: x, rsE: x, rtE: x, writeregE: x, writeregM: x, writeregW: x,
regwriteE:x, regwriteM:x, regwriteW:x, memtoregE:x, branchD:x
~stallF:x,pc:xxxxxxxx,instr:xxxxxxxx,instrD:xxxxxxxx
pc_plus4:xxxxxxxx,pc_plus4D:xxxxxxxx
rd1D:         x,rd1E:         x
rd2D:         x,rd2E:         x
clka:x $$$$$$$$$$$$$$$$$$$$$$$$$$$$$$$$$$$$$$$$$$$$$$$$$$$$$$$
datapath, write2reg£ºxxxxx, regwrite: x, pc: xxxxxxxx, instr: xxxxxxxx, instr[25:21]: xxxxx, instr[20:16]: xxxxx, rd1D:          x, rd1E:          x, alu_srcB:          x, alucontrol:xxx, alu_result:         x,memtorg:x, wd3:         x
datapath, rd1D:         x,forwardAD:x,rd2D:         x,forwardBD:x,alu_resultM:         x, eql1:         x,eql2:         x,branch:x,pcsrc:x
datapath, pcsrc:x, pc_next:xxxxxxxx,pc_branchM:xxxxxxxx, jump:x,pc_jump:xxxxxxxX, pc_next_jump:xxxxxxxx
datapath, pc_branch:xxxxxxxx, pc_plus4E:         x, imm_sl2:         X
rsD: x, rtD: x, rsE: x, rtE: x, writeregE: x, writeregM: x, writeregW: x,
regwriteE:x, regwriteM:x, regwriteW:x, memtoregE:x, branchD:x
~stallF:x,pc:xxxxxxxx,instr:00000000,instrD:xxxxxxxx
pc_plus4:xxxxxxxx,pc_plus4D:xxxxxxxx
rd1D:         x,rd1E:         x
rd2D:         x,rd2E:         x
clka:1---------------------------------------
clka:1 $$$$$$$$$$$$$$$$$$$$$$$$$$$$$$$$$$$$$$$$$$$$$$$$$$$$$$$
datapath, write2reg£ºxxxxx, regwrite: x, pc: xxxxxxxx, instr: xxxxxxxx, instr[25:21]: xxxxx, instr[20:16]: xxxxx, rd1D:          x, rd1E:          x, alu_srcB:          x, alucontrol:xxx, alu_result:         x,memtorg:x, wd3:         x
datapath, rd1D:         x,forwardAD:x,rd2D:         x,forwardBD:x,alu_resultM:         x, eql1:         x,eql2:         x,branch:x,pcsrc:x
datapath, pcsrc:x, pc_next:xxxxxxxx,pc_branchM:xxxxxxxx, jump:x,pc_jump:xxxxxxxX, pc_next_jump:xxxxxxxx
datapath, pc_branch:xxxxxxxx, pc_plus4E:         x, imm_sl2:         X
rsD: x, rtD: x, rsE: x, rtE: x, writeregE: x, writeregM: x, writeregW: x,
regwriteE:x, regwriteM:x, regwriteW:x, memtoregE:x, branchD:x
~stallF:x,pc:xxxxxxxx,instr:00000000,instrD:xxxxxxxx
pc_plus4:xxxxxxxx,pc_plus4D:xxxxxxxx
rd1D:         x,rd1E:         x
rd2D:         x,rd2E:         x
mips,data_ram_wea:x,alu_result:         x, mem_wdata:         x
controller,regwriteD:x,regwriteE:x,regwriteM:x,regwriteW:x, alucontrolE:xxx
controller, funct:xxxxxx,aluop:xx,alucontrolD:xxx
alu_dec, alucontrol:xxx
clka:1 $$$$$$$$$$$$$$$$$$$$$$$$$$$$$$$$$$$$$$$$$$$$$$$$$$$$$$$
datapath, write2reg£º00000, regwrite: x, pc: 00000000, instr: 00000000, instr[25:21]: 00000, instr[20:16]: 00000, rd1D:          0, rd1E:          0, alu_srcB:          x, alucontrol:xxx, alu_result:         0,memtorg:x, wd3:         0
datapath, rd1D:         0,forwardAD:x,rd2D:         0,forwardBD:x,alu_resultM:         0, eql1:         0,eql2:         0,branch:x,pcsrc:x
datapath, pcsrc:x, pc_next:xxxxxxxx,pc_branchM:00000000, jump:x,pc_jump:00000000, pc_next_jump:xxxxxxxx
datapath, pc_branch:xxxxxxxx, pc_plus4E:         0, imm_sl2:         X
rsD: 0, rtD: 0, rsE: 0, rtE: 0, writeregE: 0, writeregM: 0, writeregW: 0,
regwriteE:x, regwriteM:x, regwriteW:x, memtoregE:x, branchD:x
~stallF:x,pc:00000000,instr:00000000,instrD:00000000
pc_plus4:00000004,pc_plus4D:00000000
rd1D:         0,rd1E:         0
rd2D:         0,rd2E:         0
mips,data_ram_wea:x,alu_result:         0, mem_wdata:         0
regfile, we3:x, wd3:00000000000000000000000000000000, rf[ 0]:         x, rf[5]:         x, rf[2]:         x, rf[3]:         x,rf[4]:         x,rf[7]:         x
clka:1 $$$$$$$$$$$$$$$$$$$$$$$$$$$$$$$$$$$$$$$$$$$$$$$$$$$$$$$
datapath, write2reg£º00000, regwrite: x, pc: 00000000, instr: 00000000, instr[25:21]: 00000, instr[20:16]: 00000, rd1D:          0, rd1E:          0, alu_srcB:          0, alucontrol:xxx, alu_result:         0,memtorg:x, wd3:         0
datapath, rd1D:         0,forwardAD:x,rd2D:         0,forwardBD:x,alu_resultM:         0, eql1:         0,eql2:         0,branch:x,pcsrc:x
datapath, pcsrc:x, pc_next:xxxxxxxx,pc_branchM:00000000, jump:x,pc_jump:00000000, pc_next_jump:xxxxxxxx
datapath, pc_branch:00000000, pc_plus4E:         0, imm_sl2:         0
rsD: 0, rtD: 0, rsE: 0, rtE: 0, writeregE: 0, writeregM: 0, writeregW: 0,
regwriteE:x, regwriteM:x, regwriteW:x, memtoregE:x, branchD:x
~stallF:x,pc:00000000,instr:00000000,instrD:00000000
pc_plus4:00000004,pc_plus4D:00000000
rd1D:         0,rd1E:         0
rd2D:         0,rd2E:         0
clka:1 $$$$$$$$$$$$$$$$$$$$$$$$$$$$$$$$$$$$$$$$$$$$$$$$$$$$$$$
datapath, write2reg£º00000, regwrite: x, pc: 00000000, instr: 00000000, instr[25:21]: 00000, instr[20:16]: 00000, rd1D:          0, rd1E:          0, alu_srcB:          0, alucontrol:xxx, alu_result:         0,memtorg:x, wd3:         0
datapath, rd1D:         0,forwardAD:x,rd2D:         0,forwardBD:x,alu_resultM:         0, eql1:         0,eql2:         0,branch:x,pcsrc:x
datapath, pcsrc:x, pc_next:0000000X,pc_branchM:00000000, jump:x,pc_jump:00000000, pc_next_jump:0000000X
datapath, pc_branch:00000000, pc_plus4E:         0, imm_sl2:         0
rsD: 0, rtD: 0, rsE: 0, rtE: 0, writeregE: 0, writeregM: 0, writeregW: 0,
regwriteE:x, regwriteM:x, regwriteW:x, memtoregE:x, branchD:x
~stallF:x,pc:00000000,instr:00000000,instrD:00000000
pc_plus4:00000004,pc_plus4D:00000000
rd1D:         0,rd1E:         0
rd2D:         0,rd2E:         0
clka:1 $$$$$$$$$$$$$$$$$$$$$$$$$$$$$$$$$$$$$$$$$$$$$$$$$$$$$$$
datapath, write2reg£º00000, regwrite: x, pc: 00000000, instr: 00000000, instr[25:21]: 00000, instr[20:16]: 00000, rd1D:          0, rd1E:          0, alu_srcB:          0, alucontrol:xxx, alu_result:         0,memtorg:x, wd3:         0
datapath, rd1D:         0,forwardAD:0,rd2D:         0,forwardBD:0,alu_resultM:         0, eql1:         0,eql2:         0,branch:x,pcsrc:x
datapath, pcsrc:x, pc_next:0000000X,pc_branchM:00000000, jump:x,pc_jump:00000000, pc_next_jump:0000000X
datapath, pc_branch:00000000, pc_plus4E:         0, imm_sl2:         0
rsD: 0, rtD: 0, rsE: 0, rtE: 0, writeregE: 0, writeregM: 0, writeregW: 0,
regwriteE:x, regwriteM:x, regwriteW:x, memtoregE:x, branchD:x
~stallF:x,pc:00000000,instr:00000000,instrD:00000000
pc_plus4:00000004,pc_plus4D:00000000
rd1D:         0,rd1E:         0
rd2D:         0,rd2E:         0
alu_dec, alucontrol:000
clka:1 $$$$$$$$$$$$$$$$$$$$$$$$$$$$$$$$$$$$$$$$$$$$$$$$$$$$$$$
datapath, write2reg£º00000, regwrite: x, pc: 00000000, instr: 00000000, instr[25:21]: 00000, instr[20:16]: 00000, rd1D:          0, rd1E:          0, alu_srcB:          0, alucontrol:xxx, alu_result:         0,memtorg:x, wd3:         0
datapath, rd1D:         0,forwardAD:0,rd2D:         0,forwardBD:0,alu_resultM:         0, eql1:         0,eql2:         0,branch:0,pcsrc:0
datapath, pcsrc:0, pc_next:0000000X,pc_branchM:00000000, jump:0,pc_jump:00000000, pc_next_jump:0000000X
datapath, pc_branch:00000000, pc_plus4E:         0, imm_sl2:         0
rsD: 0, rtD: 0, rsE: 0, rtE: 0, writeregE: 0, writeregM: 0, writeregW: 0,
regwriteE:x, regwriteM:x, regwriteW:x, memtoregE:x, branchD:0
~stallF:x,pc:00000000,instr:00000000,instrD:00000000
pc_plus4:00000004,pc_plus4D:00000000
rd1D:         0,rd1E:         0
rd2D:         0,rd2E:         0
hazard,lwstall:x,branch_stall:0
clka:1 $$$$$$$$$$$$$$$$$$$$$$$$$$$$$$$$$$$$$$$$$$$$$$$$$$$$$$$
datapath, write2reg£º00000, regwrite: x, pc: 00000000, instr: 00000000, instr[25:21]: 00000, instr[20:16]: 00000, rd1D:          0, rd1E:          0, alu_srcB:          0, alucontrol:xxx, alu_result:         0,memtorg:x, wd3:         0
datapath, rd1D:         0,forwardAD:0,rd2D:         0,forwardBD:0,alu_resultM:         0, eql1:         0,eql2:         0,branch:0,pcsrc:0
datapath, pcsrc:0, pc_next:00000004,pc_branchM:00000000, jump:0,pc_jump:00000000, pc_next_jump:00000004
datapath, pc_branch:00000000, pc_plus4E:         0, imm_sl2:         0
rsD: 0, rtD: 0, rsE: 0, rtE: 0, writeregE: 0, writeregM: 0, writeregW: 0,
regwriteE:x, regwriteM:x, regwriteW:x, memtoregE:x, branchD:0
~stallF:x,pc:00000000,instr:00000000,instrD:00000000
pc_plus4:00000004,pc_plus4D:00000000
rd1D:         0,rd1E:         0
rd2D:         0,rd2E:         0
data_ram_wea: x, alu_result:          0, mem_wdata: 00000000000000000000000000000000
clka:0 $$$$$$$$$$$$$$$$$$$$$$$$$$$$$$$$$$$$$$$$$$$$$$$$$$$$$$$
datapath, write2reg£º00000, regwrite: x, pc: 00000000, instr: 00000000, instr[25:21]: 00000, instr[20:16]: 00000, rd1D:          0, rd1E:          0, alu_srcB:          0, alucontrol:xxx, alu_result:         0,memtorg:x, wd3:         0
datapath, rd1D:         0,forwardAD:0,rd2D:         0,forwardBD:0,alu_resultM:         0, eql1:         0,eql2:         0,branch:0,pcsrc:0
datapath, pcsrc:0, pc_next:00000004,pc_branchM:00000000, jump:0,pc_jump:00000000, pc_next_jump:00000004
datapath, pc_branch:00000000, pc_plus4E:         0, imm_sl2:         0
rsD: 0, rtD: 0, rsE: 0, rtE: 0, writeregE: 0, writeregM: 0, writeregW: 0,
regwriteE:x, regwriteM:x, regwriteW:x, memtoregE:x, branchD:0
~stallF:x,pc:00000000,instr:00000000,instrD:00000000
pc_plus4:00000004,pc_plus4D:00000000
rd1D:         0,rd1E:         0
rd2D:         0,rd2E:         0
mips,data_ram_wea:x,alu_result:         0, mem_wdata:         0
clka:0 $$$$$$$$$$$$$$$$$$$$$$$$$$$$$$$$$$$$$$$$$$$$$$$$$$$$$$$
datapath, write2reg£º00000, regwrite: x, pc: 00000000, instr: 00000000, instr[25:21]: 00000, instr[20:16]: 00000, rd1D:          0, rd1E:          0, alu_srcB:          0, alucontrol:xxx, alu_result:         0,memtorg:x, wd3:         0
datapath, rd1D:         0,forwardAD:0,rd2D:         0,forwardBD:0,alu_resultM:         0, eql1:         0,eql2:         0,branch:0,pcsrc:0
datapath, pcsrc:0, pc_next:00000004,pc_branchM:00000000, jump:0,pc_jump:00000000, pc_next_jump:00000004
datapath, pc_branch:00000000, pc_plus4E:         0, imm_sl2:         0
rsD: 0, rtD: 0, rsE: 0, rtE: 0, writeregE: 0, writeregM: 0, writeregW: 0,
regwriteE:x, regwriteM:x, regwriteW:x, memtoregE:x, branchD:0
~stallF:x,pc:00000000,instr:20020005,instrD:00000000
pc_plus4:00000004,pc_plus4D:00000000
rd1D:         0,rd1E:         0
rd2D:         0,rd2E:         0
clka:1---------------------------------------
clka:1 $$$$$$$$$$$$$$$$$$$$$$$$$$$$$$$$$$$$$$$$$$$$$$$$$$$$$$$
datapath, write2reg£º00000, regwrite: x, pc: 00000000, instr: 00000000, instr[25:21]: 00000, instr[20:16]: 00000, rd1D:          0, rd1E:          0, alu_srcB:          0, alucontrol:xxx, alu_result:         0,memtorg:x, wd3:         0
datapath, rd1D:         0,forwardAD:0,rd2D:         0,forwardBD:0,alu_resultM:         0, eql1:         0,eql2:         0,branch:0,pcsrc:0
datapath, pcsrc:0, pc_next:00000004,pc_branchM:00000000, jump:0,pc_jump:00000000, pc_next_jump:00000004
datapath, pc_branch:00000000, pc_plus4E:         0, imm_sl2:         0
rsD: 0, rtD: 0, rsE: 0, rtE: 0, writeregE: 0, writeregM: 0, writeregW: 0,
regwriteE:x, regwriteM:x, regwriteW:x, memtoregE:x, branchD:0
~stallF:x,pc:00000000,instr:20020005,instrD:00000000
pc_plus4:00000004,pc_plus4D:00000000
rd1D:         0,rd1E:         0
rd2D:         0,rd2E:         0
mips,data_ram_wea:x,alu_result:         0, mem_wdata:         0
controller,regwriteD:1,regwriteE:x,regwriteM:x,regwriteW:x, alucontrolE:000
controller, funct:000000,aluop:10,alucontrolD:000
clka:1 $$$$$$$$$$$$$$$$$$$$$$$$$$$$$$$$$$$$$$$$$$$$$$$$$$$$$$$
datapath, write2reg£º00000, regwrite: 1, pc: 00000000, instr: 00000000, instr[25:21]: 00000, instr[20:16]: 00000, rd1D:          0, rd1E:          0, alu_srcB:          0, alucontrol:000, alu_result:         0,memtorg:x, wd3:         0
datapath, rd1D:         0,forwardAD:0,rd2D:         0,forwardBD:0,alu_resultM:         0, eql1:         0,eql2:         0,branch:0,pcsrc:0
datapath, pcsrc:0, pc_next:00000004,pc_branchM:00000000, jump:0,pc_jump:00000000, pc_next_jump:00000004
datapath, pc_branch:00000000, pc_plus4E:         0, imm_sl2:         0
rsD: 0, rtD: 0, rsE: 0, rtE: 0, writeregE: 0, writeregM: 0, writeregW: 0,
regwriteE:1, regwriteM:x, regwriteW:x, memtoregE:0, branchD:0
~stallF:x,pc:00000000,instr:20020005,instrD:00000000
pc_plus4:00000004,pc_plus4D:00000000
rd1D:         0,rd1E:         0
rd2D:         0,rd2E:         0
hazard,lwstall:0,branch_stall:0
clka:1 $$$$$$$$$$$$$$$$$$$$$$$$$$$$$$$$$$$$$$$$$$$$$$$$$$$$$$$
datapath, write2reg£º00000, regwrite: 1, pc: 00000000, instr: 00000000, instr[25:21]: 00000, instr[20:16]: 00000, rd1D:          0, rd1E:          0, alu_srcB:          0, alucontrol:000, alu_result:         0,memtorg:x, wd3:         0
datapath, rd1D:         0,forwardAD:0,rd2D:         0,forwardBD:0,alu_resultM:         0, eql1:         0,eql2:         0,branch:0,pcsrc:0
datapath, pcsrc:0, pc_next:00000004,pc_branchM:00000000, jump:0,pc_jump:00000000, pc_next_jump:00000004
datapath, pc_branch:00000000, pc_plus4E:         0, imm_sl2:         0
rsD: 0, rtD: 0, rsE: 0, rtE: 0, writeregE: 0, writeregM: 0, writeregW: 0,
regwriteE:1, regwriteM:x, regwriteW:x, memtoregE:0, branchD:0
~stallF:1,pc:00000000,instr:20020005,instrD:00000000
pc_plus4:00000004,pc_plus4D:00000000
rd1D:         0,rd1E:         0
rd2D:         0,rd2E:         0
data_ram_wea: x, alu_result:          0, mem_wdata: 00000000000000000000000000000000
clka:0 $$$$$$$$$$$$$$$$$$$$$$$$$$$$$$$$$$$$$$$$$$$$$$$$$$$$$$$
datapath, write2reg£º00000, regwrite: 1, pc: 00000000, instr: 00000000, instr[25:21]: 00000, instr[20:16]: 00000, rd1D:          0, rd1E:          0, alu_srcB:          0, alucontrol:000, alu_result:         0,memtorg:x, wd3:         0
datapath, rd1D:         0,forwardAD:0,rd2D:         0,forwardBD:0,alu_resultM:         0, eql1:         0,eql2:         0,branch:0,pcsrc:0
datapath, pcsrc:0, pc_next:00000004,pc_branchM:00000000, jump:0,pc_jump:00000000, pc_next_jump:00000004
datapath, pc_branch:00000000, pc_plus4E:         0, imm_sl2:         0
rsD: 0, rtD: 0, rsE: 0, rtE: 0, writeregE: 0, writeregM: 0, writeregW: 0,
regwriteE:1, regwriteM:x, regwriteW:x, memtoregE:0, branchD:0
~stallF:1,pc:00000000,instr:20020005,instrD:00000000
pc_plus4:00000004,pc_plus4D:00000000
rd1D:         0,rd1E:         0
rd2D:         0,rd2E:         0
mips,data_ram_wea:x,alu_result:         0, mem_wdata:         0
clka:1---------------------------------------
clka:1 $$$$$$$$$$$$$$$$$$$$$$$$$$$$$$$$$$$$$$$$$$$$$$$$$$$$$$$
datapath, write2reg£º00000, regwrite: 1, pc: 00000000, instr: 00000000, instr[25:21]: 00000, instr[20:16]: 00000, rd1D:          0, rd1E:          0, alu_srcB:          0, alucontrol:000, alu_result:         0,memtorg:x, wd3:         0
datapath, rd1D:         0,forwardAD:0,rd2D:         0,forwardBD:0,alu_resultM:         0, eql1:         0,eql2:         0,branch:0,pcsrc:0
datapath, pcsrc:0, pc_next:00000004,pc_branchM:00000000, jump:0,pc_jump:00000000, pc_next_jump:00000004
datapath, pc_branch:00000000, pc_plus4E:         0, imm_sl2:         0
rsD: 0, rtD: 0, rsE: 0, rtE: 0, writeregE: 0, writeregM: 0, writeregW: 0,
regwriteE:1, regwriteM:x, regwriteW:x, memtoregE:0, branchD:0
~stallF:1,pc:00000000,instr:20020005,instrD:00000000
pc_plus4:00000004,pc_plus4D:00000000
rd1D:         0,rd1E:         0
rd2D:         0,rd2E:         0
mips,data_ram_wea:x,alu_result:         0, mem_wdata:         0
controller,regwriteD:1,regwriteE:1,regwriteM:x,regwriteW:x, alucontrolE:000
controller, funct:000000,aluop:10,alucontrolD:000
clka:1 $$$$$$$$$$$$$$$$$$$$$$$$$$$$$$$$$$$$$$$$$$$$$$$$$$$$$$$
datapath, write2reg£º00000, regwrite: 1, pc: 00000000, instr: 00000000, instr[25:21]: 00000, instr[20:16]: 00000, rd1D:          0, rd1E:          0, alu_srcB:          0, alucontrol:000, alu_result:         0,memtorg:x, wd3:         0
datapath, rd1D:         0,forwardAD:0,rd2D:         0,forwardBD:0,alu_resultM:         0, eql1:         0,eql2:         0,branch:0,pcsrc:0
datapath, pcsrc:0, pc_next:00000004,pc_branchM:00000000, jump:0,pc_jump:00000000, pc_next_jump:00000004
datapath, pc_branch:00000000, pc_plus4E:         0, imm_sl2:         0
rsD: 0, rtD: 0, rsE: 0, rtE: 0, writeregE: 0, writeregM: 0, writeregW: 0,
regwriteE:1, regwriteM:1, regwriteW:x, memtoregE:0, branchD:0
~stallF:1,pc:00000000,instr:20020005,instrD:00000000
pc_plus4:00000004,pc_plus4D:00000000
rd1D:         0,rd1E:         0
rd2D:         0,rd2E:         0
mips,data_ram_wea:0,alu_result:         0, mem_wdata:         0
data_ram_wea: 0, alu_result:          0, mem_wdata: 00000000000000000000000000000000
clka:0 $$$$$$$$$$$$$$$$$$$$$$$$$$$$$$$$$$$$$$$$$$$$$$$$$$$$$$$
datapath, write2reg£º00000, regwrite: 1, pc: 00000000, instr: 00000000, instr[25:21]: 00000, instr[20:16]: 00000, rd1D:          0, rd1E:          0, alu_srcB:          0, alucontrol:000, alu_result:         0,memtorg:x, wd3:         0
datapath, rd1D:         0,forwardAD:0,rd2D:         0,forwardBD:0,alu_resultM:         0, eql1:         0,eql2:         0,branch:0,pcsrc:0
datapath, pcsrc:0, pc_next:00000004,pc_branchM:00000000, jump:0,pc_jump:00000000, pc_next_jump:00000004
datapath, pc_branch:00000000, pc_plus4E:         0, imm_sl2:         0
rsD: 0, rtD: 0, rsE: 0, rtE: 0, writeregE: 0, writeregM: 0, writeregW: 0,
regwriteE:1, regwriteM:1, regwriteW:x, memtoregE:0, branchD:0
~stallF:1,pc:00000000,instr:20020005,instrD:00000000
pc_plus4:00000004,pc_plus4D:00000000
rd1D:         0,rd1E:         0
rd2D:         0,rd2E:         0
mips,data_ram_wea:0,alu_result:         0, mem_wdata:         0
clka:1---------------------------------------
clka:1 $$$$$$$$$$$$$$$$$$$$$$$$$$$$$$$$$$$$$$$$$$$$$$$$$$$$$$$
datapath, write2reg£º00000, regwrite: 1, pc: 00000000, instr: 00000000, instr[25:21]: 00000, instr[20:16]: 00000, rd1D:          0, rd1E:          0, alu_srcB:          0, alucontrol:000, alu_result:         0,memtorg:x, wd3:         0
datapath, rd1D:         0,forwardAD:0,rd2D:         0,forwardBD:0,alu_resultM:         0, eql1:         0,eql2:         0,branch:0,pcsrc:0
datapath, pcsrc:0, pc_next:00000004,pc_branchM:00000000, jump:0,pc_jump:00000000, pc_next_jump:00000004
datapath, pc_branch:00000000, pc_plus4E:         0, imm_sl2:         0
rsD: 0, rtD: 0, rsE: 0, rtE: 0, writeregE: 0, writeregM: 0, writeregW: 0,
regwriteE:1, regwriteM:1, regwriteW:x, memtoregE:0, branchD:0
~stallF:1,pc:00000000,instr:20020005,instrD:00000000
pc_plus4:00000004,pc_plus4D:00000000
rd1D:         0,rd1E:         0
rd2D:         0,rd2E:         0
mips,data_ram_wea:0,alu_result:         0, mem_wdata:         0
controller,regwriteD:1,regwriteE:1,regwriteM:1,regwriteW:x, alucontrolE:000
controller, funct:000000,aluop:10,alucontrolD:000
regfile, we3:1, wd3:00000000000000000000000000000000, rf[ 0]:         0, rf[5]:         x, rf[2]:         x, rf[3]:         x,rf[4]:         x,rf[7]:         x
clka:1 $$$$$$$$$$$$$$$$$$$$$$$$$$$$$$$$$$$$$$$$$$$$$$$$$$$$$$$
datapath, write2reg£º00000, regwrite: 1, pc: 00000000, instr: 00000000, instr[25:21]: 00000, instr[20:16]: 00000, rd1D:          0, rd1E:          0, alu_srcB:          0, alucontrol:000, alu_result:         0,memtorg:0, wd3:         0
datapath, rd1D:         0,forwardAD:0,rd2D:         0,forwardBD:0,alu_resultM:         0, eql1:         0,eql2:         0,branch:0,pcsrc:0
datapath, pcsrc:0, pc_next:00000004,pc_branchM:00000000, jump:0,pc_jump:00000000, pc_next_jump:00000004
datapath, pc_branch:00000000, pc_plus4E:         0, imm_sl2:         0
rsD: 0, rtD: 0, rsE: 0, rtE: 0, writeregE: 0, writeregM: 0, writeregW: 0,
regwriteE:1, regwriteM:1, regwriteW:1, memtoregE:0, branchD:0
~stallF:1,pc:00000000,instr:20020005,instrD:00000000
pc_plus4:00000004,pc_plus4D:00000000
rd1D:         0,rd1E:         0
rd2D:         0,rd2E:         0
data_ram_wea: 0, alu_result:          0, mem_wdata: 00000000000000000000000000000000
clka:0 $$$$$$$$$$$$$$$$$$$$$$$$$$$$$$$$$$$$$$$$$$$$$$$$$$$$$$$
datapath, write2reg£º00000, regwrite: 1, pc: 00000000, instr: 00000000, instr[25:21]: 00000, instr[20:16]: 00000, rd1D:          0, rd1E:          0, alu_srcB:          0, alucontrol:000, alu_result:         0,memtorg:0, wd3:         0
datapath, rd1D:         0,forwardAD:0,rd2D:         0,forwardBD:0,alu_resultM:         0, eql1:         0,eql2:         0,branch:0,pcsrc:0
datapath, pcsrc:0, pc_next:00000004,pc_branchM:00000000, jump:0,pc_jump:00000000, pc_next_jump:00000004
datapath, pc_branch:00000000, pc_plus4E:         0, imm_sl2:         0
rsD: 0, rtD: 0, rsE: 0, rtE: 0, writeregE: 0, writeregM: 0, writeregW: 0,
regwriteE:1, regwriteM:1, regwriteW:1, memtoregE:0, branchD:0
~stallF:1,pc:00000000,instr:20020005,instrD:00000000
pc_plus4:00000004,pc_plus4D:00000000
rd1D:         0,rd1E:         0
rd2D:         0,rd2E:         0
mips,data_ram_wea:0,alu_result:         0, mem_wdata:         0
clka:1---------------------------------------
clka:1 $$$$$$$$$$$$$$$$$$$$$$$$$$$$$$$$$$$$$$$$$$$$$$$$$$$$$$$
datapath, write2reg£º00000, regwrite: 1, pc: 00000000, instr: 00000000, instr[25:21]: 00000, instr[20:16]: 00000, rd1D:          0, rd1E:          0, alu_srcB:          0, alucontrol:000, alu_result:         0,memtorg:0, wd3:         0
datapath, rd1D:         0,forwardAD:0,rd2D:         0,forwardBD:0,alu_resultM:         0, eql1:         0,eql2:         0,branch:0,pcsrc:0
datapath, pcsrc:0, pc_next:00000004,pc_branchM:00000000, jump:0,pc_jump:00000000, pc_next_jump:00000004
datapath, pc_branch:00000000, pc_plus4E:         0, imm_sl2:         0
rsD: 0, rtD: 0, rsE: 0, rtE: 0, writeregE: 0, writeregM: 0, writeregW: 0,
regwriteE:1, regwriteM:1, regwriteW:1, memtoregE:0, branchD:0
~stallF:1,pc:00000000,instr:20020005,instrD:00000000
pc_plus4:00000004,pc_plus4D:00000000
rd1D:         0,rd1E:         0
rd2D:         0,rd2E:         0
mips,data_ram_wea:0,alu_result:         0, mem_wdata:         0
controller,regwriteD:1,regwriteE:1,regwriteM:1,regwriteW:1, alucontrolE:000
controller, funct:000000,aluop:10,alucontrolD:000
data_ram_wea: 0, alu_result:          0, mem_wdata: 00000000000000000000000000000000
clka:0 $$$$$$$$$$$$$$$$$$$$$$$$$$$$$$$$$$$$$$$$$$$$$$$$$$$$$$$
datapath, write2reg£º00000, regwrite: 1, pc: 00000000, instr: 00000000, instr[25:21]: 00000, instr[20:16]: 00000, rd1D:          0, rd1E:          0, alu_srcB:          0, alucontrol:000, alu_result:         0,memtorg:0, wd3:         0
datapath, rd1D:         0,forwardAD:0,rd2D:         0,forwardBD:0,alu_resultM:         0, eql1:         0,eql2:         0,branch:0,pcsrc:0
datapath, pcsrc:0, pc_next:00000004,pc_branchM:00000000, jump:0,pc_jump:00000000, pc_next_jump:00000004
datapath, pc_branch:00000000, pc_plus4E:         0, imm_sl2:         0
rsD: 0, rtD: 0, rsE: 0, rtE: 0, writeregE: 0, writeregM: 0, writeregW: 0,
regwriteE:1, regwriteM:1, regwriteW:1, memtoregE:0, branchD:0
~stallF:1,pc:00000000,instr:20020005,instrD:00000000
pc_plus4:00000004,pc_plus4D:00000000
rd1D:         0,rd1E:         0
rd2D:         0,rd2E:         0
mips,data_ram_wea:0,alu_result:         0, mem_wdata:         0
clka:1---------------------------------------
clka:1 $$$$$$$$$$$$$$$$$$$$$$$$$$$$$$$$$$$$$$$$$$$$$$$$$$$$$$$
datapath, write2reg£º00000, regwrite: 1, pc: 00000000, instr: 00000000, instr[25:21]: 00000, instr[20:16]: 00000, rd1D:          0, rd1E:          0, alu_srcB:          0, alucontrol:000, alu_result:         0,memtorg:0, wd3:         0
datapath, rd1D:         0,forwardAD:0,rd2D:         0,forwardBD:0,alu_resultM:         0, eql1:         0,eql2:         0,branch:0,pcsrc:0
datapath, pcsrc:0, pc_next:00000004,pc_branchM:00000000, jump:0,pc_jump:00000000, pc_next_jump:00000004
datapath, pc_branch:00000000, pc_plus4E:         0, imm_sl2:         0
rsD: 0, rtD: 0, rsE: 0, rtE: 0, writeregE: 0, writeregM: 0, writeregW: 0,
regwriteE:1, regwriteM:1, regwriteW:1, memtoregE:0, branchD:0
~stallF:1,pc:00000000,instr:20020005,instrD:00000000
pc_plus4:00000004,pc_plus4D:00000000
rd1D:         0,rd1E:         0
rd2D:         0,rd2E:         0
mips,data_ram_wea:0,alu_result:         0, mem_wdata:         0
controller,regwriteD:1,regwriteE:1,regwriteM:1,regwriteW:1, alucontrolE:000
controller, funct:000000,aluop:10,alucontrolD:000
data_ram_wea: 0, alu_result:          0, mem_wdata: 00000000000000000000000000000000
clka:0 $$$$$$$$$$$$$$$$$$$$$$$$$$$$$$$$$$$$$$$$$$$$$$$$$$$$$$$
datapath, write2reg£º00000, regwrite: 1, pc: 00000000, instr: 00000000, instr[25:21]: 00000, instr[20:16]: 00000, rd1D:          0, rd1E:          0, alu_srcB:          0, alucontrol:000, alu_result:         0,memtorg:0, wd3:         0
datapath, rd1D:         0,forwardAD:0,rd2D:         0,forwardBD:0,alu_resultM:         0, eql1:         0,eql2:         0,branch:0,pcsrc:0
datapath, pcsrc:0, pc_next:00000004,pc_branchM:00000000, jump:0,pc_jump:00000000, pc_next_jump:00000004
datapath, pc_branch:00000000, pc_plus4E:         0, imm_sl2:         0
rsD: 0, rtD: 0, rsE: 0, rtE: 0, writeregE: 0, writeregM: 0, writeregW: 0,
regwriteE:1, regwriteM:1, regwriteW:1, memtoregE:0, branchD:0
~stallF:1,pc:00000000,instr:20020005,instrD:00000000
pc_plus4:00000004,pc_plus4D:00000000
rd1D:         0,rd1E:         0
rd2D:         0,rd2E:         0
mips,data_ram_wea:0,alu_result:         0, mem_wdata:         0
clka:1---------------------------------------
clka:1 $$$$$$$$$$$$$$$$$$$$$$$$$$$$$$$$$$$$$$$$$$$$$$$$$$$$$$$
