Vivado/Lab_04.sim/sim_1/behav/xsim/simulate.log
Vivado Simulator 2019.1
Time resolution is 1 ps
 Block Memory Generator module loading initial data...
 Block Memory Generator data initialization complete.
Block Memory Generator module testbench.testtop1.inst_ram.inst.native_mem_module.blk_mem_gen_v8_4_3_inst is using a behavioral model for simulation which will not precisely model memory collision behavior.
clka:1---------------------------------------
mips,data_ram_wea:x,alu_result:         x, mem_wdata:         x
controller,regwriteD:x,regwriteE:x,regwriteM:x,regwriteW:x, alucontrolE:xxx
controller, funct:xxxxxx,aluop:xx,alucontrolD:xxx
alu_dec, alucontrol:xxx
mips,data_ram_wea:x,alu_result:         0, mem_wdata:         0
regfile, we3:x, wd3:00000000000000000000000000000000, rf[ 0]:         x, rf[5]:         x, rf[2]:         x, rf[3]:         x,rf[4]:         x,rf[7]:         x
alu_dec, alucontrol:000
hazard,lwstall:x,branch_stall:0
data_ram_wea: x, alu_result:          0, mem_wdata: 00000000000000000000000000000000
Simulation Failed
mips,data_ram_wea:x,alu_result:         0, mem_wdata:         0
clka:1---------------------------------------
mips,data_ram_wea:x,alu_result:         0, mem_wdata:         0
controller,regwriteD:1,regwriteE:x,regwriteM:x,regwriteW:x, alucontrolE:000
controller, funct:000000,aluop:10,alucontrolD:000
hazard,lwstall:0,branch_stall:0
data_ram_wea: x, alu_result:          0, mem_wdata: 00000000000000000000000000000000
Simulation Failed
mips,data_ram_wea:x,alu_result:         0, mem_wdata:         0
clka:1---------------------------------------
mips,data_ram_wea:x,alu_result:         0, mem_wdata:         0
controller,regwriteD:1,regwriteE:1,regwriteM:x,regwriteW:x, alucontrolE:000
controller, funct:000000,aluop:10,alucontrolD:000
mips,data_ram_wea:0,alu_result:         0, mem_wdata:         0
data_ram_wea: 0, alu_result:          0, mem_wdata: 00000000000000000000000000000000
Simulation Failed
mips,data_ram_wea:0,alu_result:         0, mem_wdata:         0
clka:1---------------------------------------
mips,data_ram_wea:0,alu_result:         0, mem_wdata:         0
controller,regwriteD:1,regwriteE:1,regwriteM:1,regwriteW:x, alucontrolE:000
controller, funct:000000,aluop:10,alucontrolD:000
regfile, we3:1, wd3:00000000000000000000000000000000, rf[ 0]:         0, rf[5]:         x, rf[2]:         x, rf[3]:         x,rf[4]:         x,rf[7]:         x
data_ram_wea: 0, alu_result:          0, mem_wdata: 00000000000000000000000000000000
Simulation Failed
mips,data_ram_wea:0,alu_result:         0, mem_wdata:         0
clka:1---------------------------------------
mips,data_ram_wea:0,alu_result:         0, mem_wdata:         0
controller,regwriteD:1,regwriteE:1,regwriteM:1,regwriteW:1, alucontrolE:000
controller, funct:000000,aluop:10,alucontrolD:000
data_ram_wea: 0, alu_result:          0, mem_wdata: 00000000000000000000000000000000
Simulation Failed
mips,data_ram_wea:0,alu_result:         0, mem_wdata:         0
clka:1---------------------------------------
mips,data_ram_wea:0,alu_result:         0, mem_wdata:         0
controller,regwriteD:1,regwriteE:1,regwriteM:1,regwriteW:1, alucontrolE:000
controller, funct:000000,aluop:10,alucontrolD:000
data_ram_wea: 0, alu_result:          0, mem_wdata: 00000000000000000000000000000000
Simulation Failed
mips,data_ram_wea:0,alu_result:         0, mem_wdata:         0
clka:1---------------------------------------
mips,data_ram_wea:0,alu_result:         0, mem_wdata:         0
controller,regwriteD:1,regwriteE:1,regwriteM:1,regwriteW:1, alucontrolE:000
controller, funct:000000,aluop:10,alucontrolD:000
data_ram_wea: 0, alu_result:          0, mem_wdata: 00000000000000000000000000000000
Simulation Failed
mips,data_ram_wea:0,alu_result:         0, mem_wdata:         0
clka:1---------------------------------------
mips,data_ram_wea:0,alu_result:         0, mem_wdata:         0
controller,regwriteD:1,regwriteE:1,regwriteM:1,regwriteW:1, alucontrolE:000
controller, funct:000000,aluop:10,alucontrolD:000
data_ram_wea: 0, alu_result:          0, mem_wdata: 00000000000000000000000000000000
Simulation Failed
mips,data_ram_wea:0,alu_result:         0, mem_wdata:         0
clka:1---------------------------------------
mips,data_ram_wea:0,alu_result:         0, mem_wdata:         0
controller,regwriteD:1,regwriteE:1,regwriteM:1,regwriteW:1, alucontrolE:000
controller, funct:000000,aluop:10,alucontrolD:000
data_ram_wea: 0, alu_result:          0, mem_wdata: 00000000000000000000000000000000
Simulation Failed
mips,data_ram_wea:0,alu_result:         0, mem_wdata:         0
clka:1---------------------------------------
mips,data_ram_wea:0,alu_result:         0, mem_wdata:         0
controller,regwriteD:1,regwriteE:1,regwriteM:1,regwriteW:1, alucontrolE:000
controller, funct:000000,aluop:10,alucontrolD:000
data_ram_wea: 0, alu_result:          0, mem_wdata: 00000000000000000000000000000000
Simulation Failed
mips,data_ram_wea:0,alu_result:         0, mem_wdata:         0
clka:1---------------------------------------
mips,data_ram_wea:0,alu_result:         0, mem_wdata:         0
controller,regwriteD:1,regwriteE:1,regwriteM:1,regwriteW:1, alucontrolE:000
controller, funct:000000,aluop:10,alucontrolD:000
alu_dec, alucontrol:000
alu_dec, alucontrol:000
alu_dec, alucontrol:010
data_ram_wea: 0, alu_result:          0, mem_wdata: 00000000000000000000000000000000
Simulation Failed
mips,data_ram_wea:0,alu_result:         0, mem_wdata:         0
clka:1---------------------------------------
mips,data_ram_wea:0,alu_result:         0, mem_wdata:         0
controller,regwriteD:1,regwriteE:1,regwriteM:1,regwriteW:1, alucontrolE:010
controller, funct:000101,aluop:00,alucontrolD:010
alu_dec, alucontrol:010
data_ram_wea: 0, alu_result:          0, mem_wdata: 00000000000000000000000000000000
Simulation Failed
mips,data_ram_wea:0,alu_result:         0, mem_wdata:         0
clka:1---------------------------------------
mips,data_ram_wea:0,alu_result:         0, mem_wdata:         0
controller,regwriteD:1,regwriteE:1,regwriteM:1,regwriteW:1, alucontrolE:010
controller, funct:001100,aluop:00,alucontrolD:010
alu_dec, alucontrol:010
mips,data_ram_wea:0,alu_result:         5, mem_wdata:         x
data_ram_wea: 0, alu_result:          5, mem_wdata: xxxxxxxxxxxxxxxxxxxxxxxxxxxxxxxx
Simulation Failed
mips,data_ram_wea:0,alu_result:         5, mem_wdata:         x
clka:1---------------------------------------
mips,data_ram_wea:0,alu_result:         5, mem_wdata:         x
controller,regwriteD:1,regwriteE:1,regwriteM:1,regwriteW:1, alucontrolE:010
controller, funct:110111,aluop:00,alucontrolD:010
alu_dec, alucontrol:010
mips,data_ram_wea:0,alu_result:        12, mem_wdata:         x
regfile, we3:1, wd3:00000000000000000000000000000101, rf[ 2]:         5, rf[5]:         x, rf[2]:         5, rf[3]:         x,rf[4]:         x,rf[7]:         x
alu_dec, alucontrol:010
alu_dec, alucontrol:001
data_ram_wea: 0, alu_result:         12, mem_wdata: xxxxxxxxxxxxxxxxxxxxxxxxxxxxxxxx
Simulation Failed
mips,data_ram_wea:0,alu_result:        12, mem_wdata:         x
clka:1---------------------------------------
mips,data_ram_wea:0,alu_result:        12, mem_wdata:         x
controller,regwriteD:1,regwriteE:1,regwriteM:1,regwriteW:1, alucontrolE:001
controller, funct:100101,aluop:10,alucontrolD:001
alu_dec, alucontrol:001
mips,data_ram_wea:0,alu_result:         3, mem_wdata:         x
regfile, we3:1, wd3:00000000000000000000000000001100, rf[ 3]:        12, rf[5]:         x, rf[2]:         5, rf[3]:        12,rf[4]:         x,rf[7]:         x
alu_dec, alucontrol:000
data_ram_wea: 0, alu_result:          3, mem_wdata: xxxxxxxxxxxxxxxxxxxxxxxxxxxxxxxx
Simulation Failed
mips,data_ram_wea:0,alu_result:         3, mem_wdata:         x
clka:1---------------------------------------
mips,data_ram_wea:0,alu_result:         3, mem_wdata:         x
controller,regwriteD:1,regwriteE:1,regwriteM:1,regwriteW:1, alucontrolE:000
controller, funct:100100,aluop:10,alucontrolD:000
alu_dec, alucontrol:000
mips,data_ram_wea:0,alu_result:         7, mem_wdata:         5
regfile, we3:1, wd3:00000000000000000000000000000011, rf[ 7]:         3, rf[5]:         x, rf[2]:         5, rf[3]:        12,rf[4]:         x,rf[7]:         3
alu_dec, alucontrol:010
data_ram_wea: 0, alu_result:          7, mem_wdata: 00000000000000000000000000000101
Simulation Failed
mips,data_ram_wea:0,alu_result:         7, mem_wdata:         5
clka:1---------------------------------------
mips,data_ram_wea:0,alu_result:         7, mem_wdata:         5
controller,regwriteD:1,regwriteE:1,regwriteM:1,regwriteW:1, alucontrolE:010
controller, funct:100000,aluop:10,alucontrolD:010
alu_dec, alucontrol:010
mips,data_ram_wea:0,alu_result:         4, mem_wdata:         7
regfile, we3:1, wd3:00000000000000000000000000000111, rf[ 4]:         7, rf[5]:         x, rf[2]:         5, rf[3]:        12,rf[4]:         7,rf[7]:         3
alu_dec, alucontrol:000
hazard,lwstall:0,branch_stall:1
alu_dec, alucontrol:110
data_ram_wea: 0, alu_result:          4, mem_wdata: 00000000000000000000000000000111
Simulation Failed
mips,data_ram_wea:0,alu_result:         4, mem_wdata:         7
clka:1---------------------------------------
mips,data_ram_wea:0,alu_result:         4, mem_wdata:         7
controller,regwriteD:0,regwriteE:1,regwriteM:1,regwriteW:1, alucontrolE:110
controller, funct:001010,aluop:01,alucontrolD:110
alu_dec, alucontrol:110
mips,data_ram_wea:0,alu_result:        11, mem_wdata:         7
regfile, we3:1, wd3:00000000000000000000000000000100, rf[ 5]:         4, rf[5]:         4, rf[2]:         5, rf[3]:        12,rf[4]:         7,rf[7]:         3
hazard,lwstall:0,branch_stall:0
alu_dec, alucontrol:110
alu_dec, alucontrol:111
data_ram_wea: 0, alu_result:         11, mem_wdata: 00000000000000000000000000000111
Simulation Failed
mips,data_ram_wea:0,alu_result:        11, mem_wdata:         7
clka:1---------------------------------------
mips,data_ram_wea:0,alu_result:        11, mem_wdata:         7
controller,regwriteD:1,regwriteE:0,regwriteM:1,regwriteW:1, alucontrolE:111
controller, funct:101010,aluop:10,alucontrolD:111
alu_dec, alucontrol:111
mips,data_ram_wea:0,alu_result:         8, mem_wdata:         3
regfile, we3:1, wd3:00000000000000000000000000001011, rf[ 5]:        11, rf[5]:        11, rf[2]:         5, rf[3]:        12,rf[4]:         7,rf[7]:         3
alu_dec, alucontrol:000
hazard,lwstall:0,branch_stall:1
alu_dec, alucontrol:110
data_ram_wea: 0, alu_result:          8, mem_wdata: 00000000000000000000000000000011
Simulation Failed
mips,data_ram_wea:0,alu_result:         8, mem_wdata:         3
clka:1---------------------------------------
mips,data_ram_wea:0,alu_result:         8, mem_wdata:         3
controller,regwriteD:0,regwriteE:1,regwriteM:0,regwriteW:1, alucontrolE:110
controller, funct:000001,aluop:01,alucontrolD:110
alu_dec, alucontrol:110
mips,data_ram_wea:0,alu_result:         0, mem_wdata:         7
regfile, we3:0, wd3:00000000000000000000000000001000, rf[ 7]:         3, rf[5]:        11, rf[2]:         5, rf[3]:        12,rf[4]:         7,rf[7]:         3
hazard,lwstall:0,branch_stall:0
alu_dec, alucontrol:110
alu_dec, alucontrol:010
data_ram_wea: 0, alu_result:          0, mem_wdata: 00000000000000000000000000000111
Simulation Failed
mips,data_ram_wea:0,alu_result:         0, mem_wdata:         7
clka:1---------------------------------------
mips,data_ram_wea:0,alu_result:         0, mem_wdata:         7
controller,regwriteD:1,regwriteE:0,regwriteM:1,regwriteW:0, alucontrolE:010
controller, funct:000000,aluop:00,alucontrolD:010
alu_dec, alucontrol:010
regfile, we3:1, wd3:00000000000000000000000000000000, rf[ 4]:         0, rf[5]:        11, rf[2]:         5, rf[3]:        12,rf[4]:         0,rf[7]:         3
alu_dec, alucontrol:010
alu_dec, alucontrol:111
data_ram_wea: 0, alu_result:          0, mem_wdata: 00000000000000000000000000000000
Simulation Failed
mips,data_ram_wea:0,alu_result:         0, mem_wdata:         0
clka:1---------------------------------------
mips,data_ram_wea:0,alu_result:         0, mem_wdata:         0
controller,regwriteD:1,regwriteE:1,regwriteM:0,regwriteW:1, alucontrolE:111
controller, funct:101010,aluop:10,alucontrolD:111
alu_dec, alucontrol:111
regfile, we3:0, wd3:00000000000000000000000000000000, rf[ 0]:         0, rf[5]:        11, rf[2]:         5, rf[3]:        12,rf[4]:         0,rf[7]:         3
alu_dec, alucontrol:000
data_ram_wea: 0, alu_result:          0, mem_wdata: 00000000000000000000000000000000
Simulation Failed
mips,data_ram_wea:0,alu_result:         0, mem_wdata:         0
clka:1---------------------------------------
mips,data_ram_wea:0,alu_result:         0, mem_wdata:         0
controller,regwriteD:1,regwriteE:1,regwriteM:1,regwriteW:0, alucontrolE:000
controller, funct:000000,aluop:10,alucontrolD:000
alu_dec, alucontrol:000
regfile, we3:1, wd3:00000000000000000000000000000000, rf[ 0]:         0, rf[5]:        11, rf[2]:         5, rf[3]:        12,rf[4]:         0,rf[7]:         3
alu_dec, alucontrol:111
data_ram_wea: 0, alu_result:          0, mem_wdata: 00000000000000000000000000000000
Simulation Failed
mips,data_ram_wea:0,alu_result:         0, mem_wdata:         0
clka:1---------------------------------------
mips,data_ram_wea:0,alu_result:         0, mem_wdata:         0
controller,regwriteD:1,regwriteE:1,regwriteM:1,regwriteW:1, alucontrolE:111
controller, funct:101010,aluop:10,alucontrolD:111
alu_dec, alucontrol:111
alu_dec, alucontrol:010
data_ram_wea: 0, alu_result:          0, mem_wdata: 00000000000000000000000000000000
Simulation Failed
mips,data_ram_wea:0,alu_result:         0, mem_wdata:         0
clka:1---------------------------------------
mips,data_ram_wea:0,alu_result:         0, mem_wdata:         0
controller,regwriteD:1,regwriteE:1,regwriteM:1,regwriteW:1, alucontrolE:010
controller, funct:100000,aluop:10,alucontrolD:010
alu_dec, alucontrol:010
mips,data_ram_wea:0,alu_result:         1, mem_wdata:         5
alu_dec, alucontrol:110
data_ram_wea: 0, alu_result:          1, mem_wdata: 00000000000000000000000000000101
Simulation Failed
mips,data_ram_wea:0,alu_result:         1, mem_wdata:         5
clka:1---------------------------------------
mips,data_ram_wea:0,alu_result:         1, mem_wdata:         5
controller,regwriteD:1,regwriteE:1,regwriteM:1,regwriteW:1, alucontrolE:110
controller, funct:100010,aluop:10,alucontrolD:110
alu_dec, alucontrol:110
mips,data_ram_wea:0,alu_result:        12, mem_wdata:        11
regfile, we3:1, wd3:00000000000000000000000000000001, rf[ 4]:         1, rf[5]:        11, rf[2]:         5, rf[3]:        12,rf[4]:         1,rf[7]:         3
alu_dec, alucontrol:000
alu_dec, alucontrol:010
data_ram_wea: 0, alu_result:         12, mem_wdata: 00000000000000000000000000001011
Simulation Failed
mips,data_ram_wea:0,alu_result:        12, mem_wdata:        11
clka:1---------------------------------------
mips,data_ram_wea:0,alu_result:        12, mem_wdata:        11
controller,regwriteD:0,regwriteE:1,regwriteM:1,regwriteW:1, alucontrolE:010
controller, funct:000100,aluop:00,alucontrolD:010
alu_dec, alucontrol:010
mips,data_ram_wea:0,alu_result:         7, mem_wdata:         5
regfile, we3:1, wd3:00000000000000000000000000001100, rf[ 7]:        12, rf[5]:        11, rf[2]:         5, rf[3]:        12,rf[4]:         1,rf[7]:        12
data_ram_wea: 0, alu_result:          7, mem_wdata: 00000000000000000000000000000101
Simulation Failed
mips,data_ram_wea:0,alu_result:         7, mem_wdata:         5
clka:1---------------------------------------
mips,data_ram_wea:0,alu_result:         7, mem_wdata:         5
controller,regwriteD:1,regwriteE:0,regwriteM:1,regwriteW:1, alucontrolE:010
controller, funct:010000,aluop:00,alucontrolD:010
alu_dec, alucontrol:010
mips,data_ram_wea:1,alu_result:        80, mem_wdata:         7
hazard,lwstall:1,branch_stall:0
regfile, we3:1, wd3:00000000000000000000000000000111, rf[ 7]:         7, rf[5]:        11, rf[2]:         5, rf[3]:        12,rf[4]:         1,rf[7]:         7
data_ram_wea: 1, alu_result:         80, mem_wdata: 00000000000000000000000000000111
mips,data_ram_wea:1,alu_result:        80, mem_wdata:         7
clka:1---------------------------------------
mips,data_ram_wea:1,alu_result:        80, mem_wdata:         7
controller,regwriteD:0,regwriteE:1,regwriteM:0,regwriteW:1, alucontrolE:010
controller, funct:010100,aluop:00,alucontrolD:010
mips,data_ram_wea:0,alu_result:        80, mem_wdata:         5
regfile, we3:0, wd3:00000000000000000000000001010000, rf[ 7]:         7, rf[5]:        11, rf[2]:         5, rf[3]:        12,rf[4]:         1,rf[7]:         7
hazard,lwstall:0,branch_stall:0
data_ram_wea: 0, alu_result:         80, mem_wdata: 00000000000000000000000000000101
mips,data_ram_wea:0,alu_result:        80, mem_wdata:         5
clka:1---------------------------------------
mips,data_ram_wea:0,alu_result:        80, mem_wdata:         5
controller,regwriteD:0,regwriteE:0,regwriteM:1,regwriteW:0, alucontrolE:010
controller, funct:010100,aluop:00,alucontrolD:010
alu_dec, alucontrol:010
mips,data_ram_wea:1,alu_result:         0, mem_wdata:         0
regfile, we3:1, wd3:00000000000000000000000001010000, rf[ 2]:        80, rf[5]:        11, rf[2]:        80, rf[3]:        12,rf[4]:         1,rf[7]:         7
regfile, we3:1, wd3:00000000000000000000000000000111, rf[ 2]:         7, rf[5]:        11, rf[2]:         7, rf[3]:        12,rf[4]:         1,rf[7]:         7
alu_dec, alucontrol:010
alu_dec, alucontrol:000
data_ram_wea: 1, alu_result:          0, mem_wdata: 00000000000000000000000000000000
Simulation Failed
mips,data_ram_wea:1,alu_result:         0, mem_wdata:         0
clka:1---------------------------------------
mips,data_ram_wea:1,alu_result:         0, mem_wdata:         0
controller,regwriteD:1,regwriteE:0,regwriteM:0,regwriteW:1, alucontrolE:000
controller, funct:000000,aluop:10,alucontrolD:000
mips,data_ram_wea:1,alu_result:        84, mem_wdata:         7
regfile, we3:0, wd3:00000000000000000000000000000000, rf[ 0]:         0, rf[5]:        11, rf[2]:         7, rf[3]:        12,rf[4]:         1,rf[7]:         7
data_ram_wea: 1, alu_result:         84, mem_wdata: 00000000000000000000000000000111
OK!*N
mips,data_ram_wea:1,alu_result:        84, mem_wdata:         7
clka:1---------------------------------------
mips,data_ram_wea:1,alu_result:        84, mem_wdata:         7
controller,regwriteD:1,regwriteE:1,regwriteM:0,regwriteW:0, alucontrolE:000
controller, funct:000000,aluop:10,alucontrolD:000
mips,data_ram_wea:0,alu_result:         0, mem_wdata:         0
regfile, we3:0, wd3:00000000000000000000000001010100, rf[ 2]:         7, rf[5]:        11, rf[2]:         7, rf[3]:        12,rf[4]:         1,rf[7]:         7
data_ram_wea: 0, alu_result:          0, mem_wdata: 00000000000000000000000000000000
Simulation Failed
mips,data_ram_wea:0,alu_result:         0, mem_wdata:         0
clka:1---------------------------------------
mips,data_ram_wea:0,alu_result:         0, mem_wdata:         0
controller,regwriteD:1,regwriteE:1,regwriteM:1,regwriteW:0, alucontrolE:000
controller, funct:000000,aluop:10,alucontrolD:000
regfile, we3:1, wd3:00000000000000000000000000000000, rf[ 0]:         0, rf[5]:        11, rf[2]:         7, rf[3]:        12,rf[4]:         1,rf[7]:         7
data_ram_wea: 0, alu_result:          0, mem_wdata: 00000000000000000000000000000000
Simulation Failed
mips,data_ram_wea:0,alu_result:         0, mem_wdata:         0
clka:1---------------------------------------
mips,data_ram_wea:0,alu_result:         0, mem_wdata:         0
controller,regwriteD:1,regwriteE:1,regwriteM:1,regwriteW:1, alucontrolE:000
controller, funct:000000,aluop:10,alucontrolD:000
data_ram_wea: 0, alu_result:          0, mem_wdata: 00000000000000000000000000000000
Simulation Failed
mips,data_ram_wea:0,alu_result:         0, mem_wdata:         0
clka:1---------------------------------------
mips,data_ram_wea:0,alu_result:         0, mem_wdata:         0
controller,regwriteD:1,regwriteE:1,regwriteM:1,regwriteW:1, alucontrolE:000
controller, funct:000000,aluop:10,alucontrolD:000
data_ram_wea: 0, alu_result:          0, mem_wdata: 00000000000000000000000000000000
Simulation Failed
mips,data_ram_wea:0,alu_result:         0, mem_wdata:         0
clka:1---------------------------------------
mips,data_ram_wea:0,alu_result:         0, mem_wdata:         0
controller,regwriteD:1,regwriteE:1,regwriteM:1,regwriteW:1, alucontrolE:000
controller, funct:000000,aluop:10,alucontrolD:000
data_ram_wea: 0, alu_result:          0, mem_wdata: 00000000000000000000000000000000
Simulation Failed
mips,data_ram_wea:0,alu_result:         0, mem_wdata:         0
clka:1---------------------------------------
mips,data_ram_wea:0,alu_result:         0, mem_wdata:         0
controller,regwriteD:1,regwriteE:1,regwriteM:1,regwriteW:1, alucontrolE:000
controller, funct:000000,aluop:10,alucontrolD:000
data_ram_wea: 0, alu_result:          0, mem_wdata: 00000000000000000000000000000000
Simulation Failed
mips,data_ram_wea:0,alu_result:         0, mem_wdata:         0
clka:1---------------------------------------
mips,data_ram_wea:0,alu_result:         0, mem_wdata:         0
controller,regwriteD:1,regwriteE:1,regwriteM:1,regwriteW:1, alucontrolE:000
controller, funct:000000,aluop:10,alucontrolD:000
data_ram_wea: 0, alu_result:          0, mem_wdata: 00000000000000000000000000000000
Simulation Failed
mips,data_ram_wea:0,alu_result:         0, mem_wdata:         0
clka:1---------------------------------------
mips,data_ram_wea:0,alu_result:         0, mem_wdata:         0
controller,regwriteD:1,regwriteE:1,regwriteM:1,regwriteW:1, alucontrolE:000
controller, funct:000000,aluop:10,alucontrolD:000
data_ram_wea: 0, alu_result:          0, mem_wdata: 00000000000000000000000000000000
Simulation Failed
mips,data_ram_wea:0,alu_result:         0, mem_wdata:         0
clka:1---------------------------------------
mips,data_ram_wea:0,alu_result:         0, mem_wdata:         0
controller,regwriteD:1,regwriteE:1,regwriteM:1,regwriteW:1, alucontrolE:000
controller, funct:000000,aluop:10,alucontrolD:000
data_ram_wea: 0, alu_result:          0, mem_wdata: 00000000000000000000000000000000
Simulation Failed
mips,data_ram_wea:0,alu_result:         0, mem_wdata:         0
clka:1---------------------------------------
mips,data_ram_wea:0,alu_result:         0, mem_wdata:         0
controller,regwriteD:1,regwriteE:1,regwriteM:1,regwriteW:1, alucontrolE:000
controller, funct:000000,aluop:10,alucontrolD:000
data_ram_wea: 0, alu_result:          0, mem_wdata: 00000000000000000000000000000000
Simulation Failed
mips,data_ram_wea:0,alu_result:         0, mem_wdata:         0
clka:1---------------------------------------
mips,data_ram_wea:0,alu_result:         0, mem_wdata:         0
controller,regwriteD:1,regwriteE:1,regwriteM:1,regwriteW:1, alucontrolE:000
controller, funct:000000,aluop:10,alucontrolD:000
data_ram_wea: 0, alu_result:          0, mem_wdata: 00000000000000000000000000000000
Simulation Failed
mips,data_ram_wea:0,alu_result:         0, mem_wdata:         0
clka:1---------------------------------------
mips,data_ram_wea:0,alu_result:         0, mem_wdata:         0
controller,regwriteD:1,regwriteE:1,regwriteM:1,regwriteW:1, alucontrolE:000
controller, funct:000000,aluop:10,alucontrolD:000
data_ram_wea: 0, alu_result:          0, mem_wdata: 00000000000000000000000000000000
Simulation Failed
mips,data_ram_wea:0,alu_result:         0, mem_wdata:         0
clka:1---------------------------------------
mips,data_ram_wea:0,alu_result:         0, mem_wdata:         0
controller,regwriteD:1,regwriteE:1,regwriteM:1,regwriteW:1, alucontrolE:000
controller, funct:000000,aluop:10,alucontrolD:000
data_ram_wea: 0, alu_result:          0, mem_wdata: 00000000000000000000000000000000
Simulation Failed
mips,data_ram_wea:0,alu_result:         0, mem_wdata:         0
clka:1---------------------------------------
mips,data_ram_wea:0,alu_result:         0, mem_wdata:         0
controller,regwriteD:1,regwriteE:1,regwriteM:1,regwriteW:1, alucontrolE:000
controller, funct:000000,aluop:10,alucontrolD:000
data_ram_wea: 0, alu_result:          0, mem_wdata: 00000000000000000000000000000000
Simulation Failed
mips,data_ram_wea:0,alu_result:         0, mem_wdata:         0
clka:1---------------------------------------
mips,data_ram_wea:0,alu_result:         0, mem_wdata:         0
controller,regwriteD:1,regwriteE:1,regwriteM:1,regwriteW:1, alucontrolE:000
controller, funct:000000,aluop:10,alucontrolD:000
data_ram_wea: 0, alu_result:          0, mem_wdata: 00000000000000000000000000000000
Simulation Failed
mips,data_ram_wea:0,alu_result:         0, mem_wdata:         0
clka:1---------------------------------------
mips,data_ram_wea:0,alu_result:         0, mem_wdata:         0
controller,regwriteD:1,regwriteE:1,regwriteM:1,regwriteW:1, alucontrolE:000
controller, funct:000000,aluop:10,alucontrolD:000
data_ram_wea: 0, alu_result:          0, mem_wdata: 00000000000000000000000000000000
Simulation Failed
mips,data_ram_wea:0,alu_result:         0, mem_wdata:         0
clka:1---------------------------------------
mips,data_ram_wea:0,alu_result:         0, mem_wdata:         0
controller,regwriteD:1,regwriteE:1,regwriteM:1,regwriteW:1, alucontrolE:000
controller, funct:000000,aluop:10,alucontrolD:000
data_ram_wea: 0, alu_result:          0, mem_wdata: 00000000000000000000000000000000
Simulation Failed
mips,data_ram_wea:0,alu_result:         0, mem_wdata:         0
clka:1---------------------------------------
mips,data_ram_wea:0,alu_result:         0, mem_wdata:         0
controller,regwriteD:1,regwriteE:1,regwriteM:1,regwriteW:1, alucontrolE:000
controller, funct:000000,aluop:10,alucontrolD:000
data_ram_wea: 0, alu_result:          0, mem_wdata: 00000000000000000000000000000000
Simulation Failed
mips,data_ram_wea:0,alu_result:         0, mem_wdata:         0
clka:1---------------------------------------
mips,data_ram_wea:0,alu_result:         0, mem_wdata:         0
controller,regwriteD:1,regwriteE:1,regwriteM:1,regwriteW:1, alucontrolE:000
controller, funct:000000,aluop:10,alucontrolD:000
data_ram_wea: 0, alu_result:          0, mem_wdata: 00000000000000000000000000000000
Simulation Failed
mips,data_ram_wea:0,alu_result:         0, mem_wdata:         0
clka:1---------------------------------------
mips,data_ram_wea:0,alu_result:         0, mem_wdata:         0
controller,regwriteD:1,regwriteE:1,regwriteM:1,regwriteW:1, alucontrolE:000
controller, funct:000000,aluop:10,alucontrolD:000
